Tidvyerse Basics
…
Nevertheless, it can be tidied fairly easily!

pew %>%
  gather(income, frequency, -religion)

## # A tibble: 180 x 3
##                   religion income frequency
##                      <chr>  <chr>     <int>
##  1                Agnostic  <$10k        27
##  2                 Atheist  <$10k        12
##  3                Buddhist  <$10k        27
##  4                Catholic  <$10k       418
##  5      Don't know/refused  <$10k        15
##  6        Evangelical Prot  <$10k       575
##  7                   Hindu  <$10k         1
##  8 Historically Black Prot  <$10k       228
##  9       Jehovah's Witness  <$10k        20
## 10                  Jewish  <$10k        19
## # ... with 170 more rows

This next example illustrates the second issue: multiple variables in one column. This data set reflects tuberculosis information gathered by the World Health Organization.

tb <- tbl_df(read.csv("data/tb.csv", stringsAsFactors = FALSE))
tb

## # A tibble: 5,769 x 22
##     iso2  year   m04  m514  m014 m1524 m2534 m3544 m4554 m5564   m65    mu
##    <chr> <int> <int> <int> <int> <int> <int> <int> <int> <int> <int> <int>
##  1    AD  1989    NA    NA    NA    NA    NA    NA    NA    NA    NA    NA
##  2    AD  1990    NA    NA    NA    NA    NA    NA    NA    NA    NA    NA
##  3    AD  1991    NA    NA    NA    NA    NA    NA    NA    NA    NA    NA
##  4    AD  1992    NA    NA    NA    NA    NA    NA    NA    NA    NA    NA
##  5    AD  1993    NA    NA    NA    NA    NA    NA    NA    NA    NA    NA
##  6    AD  1994    NA    NA    NA    NA    NA    NA    NA    NA    NA    NA
##  7    AD  1996    NA    NA     0     0     0     4     1     0     0    NA
##  8    AD  1997    NA    NA     0     0     1     2     2     1     6    NA
##  9    AD  1998    NA    NA     0     0     0     1     0     0     0    NA
## 10    AD  1999    NA    NA     0     0     0     1     1     0     0    NA
## # ... with 5,759 more rows, and 10 more variables: f04 <int>, f514 <int>,
## #   f014 <int>, f1524 <int>, f2534 <int>, f3544 <int>, f4554 <int>,
## #   f5564 <int>, f65 <int>, fu <int>

Although the variables for country and year (i.e. iso2 and year) are already correctly encoded as columns, the variables/columns for demographics are combined together across several columns. (i.e. m04, m514, etc.) These columns implicitly store information regarding gender and age. The first letter m or f indicates male or female, and the digits indicate age ranges (e.g. m514 indicates males who are ages 5 through 14).

Two operations are needed to tidy this data set. 3

tb2 <-
  tb %>% 
  gather(demo, n, -iso2, -year, na.rm = TRUE)
tb2

## # A tibble: 35,750 x 4
##     iso2  year  demo     n
##  * <chr> <int> <chr> <int>
##  1    AD  2005   m04     0
##  2    AD  2006   m04     0
##  3    AD  2008   m04     0
##  4    AE  2006   m04     0
##  5    AE  2007   m04     0
##  6    AE  2008   m04     0
##  7    AG  2007   m04     0
##  8    AL  2005   m04     0
##  9    AL  2006   m04     1
## 10    AL  2007   m04     0
## # ... with 35,740 more rows

tb3 <-
  tb2 %>% 
  separate(demo, c("sex", "age"), 1)
tb3

## # A tibble: 35,750 x 5
##     iso2  year   sex   age     n
##  * <chr> <int> <chr> <chr> <int>
##  1    AD  2005     m    04     0
##  2    AD  2006     m    04     0
##  3    AD  2008     m    04     0
##  4    AE  2006     m    04     0
##  5    AE  2007     m    04     0
##  6    AE  2008     m    04     0
##  7    AG  2007     m    04     0
##  8    AL  2005     m    04     0
##  9    AL  2006     m    04     1
## 10    AL  2007     m    04     0
## # ... with 35,740 more rows
…
The readability provided by the verbs in tidyverse functions is complemented/facilitated by the pipe operation. Piping can easily be done using magrittrs %>% operator with functions in tidyverse packages. The notion of piping may not be completely unfamiliar to those accustomed to programming. (For example, the += operator implements piped addition in C++.) To those unfamiliar, with piping, it is essentially the composition mathematical function (i.e. x %>% f(y) is equivalent to f(x, y)).

Combined with good code style, piping can make code self-expanatory. For example, see the following comparison of dplyr operations using the nycflight13 package. 7

library("nycflights13")
dim(flights)
flights

## [1] 336776     19
## # A tibble: 336,776 x 19
##     year month   day dep_time sched_dep_time dep_delay arr_time
##    <int> <int> <int>    <int>          <int>     <dbl>    <int>
##  1  2013     1     1      517            515         2      830
##  2  2013     1     1      533            529         4      850
##  3  2013     1     1      542            540         2      923
##  4  2013     1     1      544            545        -1     1004
##  5  2013     1     1      554            600        -6      812
##  6  2013     1     1      554            558        -4      740
##  7  2013     1     1      555            600        -5      913
##  8  2013     1     1      557            600        -3      709
##  9  2013     1     1      557            600        -3      838
## 10  2013     1     1      558            600        -2      753
## # ... with 336,766 more rows, and 12 more variables: sched_arr_time <int>,
## #   arr_delay <dbl>, carrier <chr>, flight <int>, tailnum <chr>,
## #   origin <chr>, dest <chr>, air_time <dbl>, distance <dbl>, hour <dbl>,
## #   minute <dbl>, time_hour <dttm>
Even though the data is tidy and the code uses dplyr functions, the second set of commands using the pipe operator are inarguably easier to interpret because the operations are performed in an ordered fashion (i.e.left-to-right, top-to-bottom). (The first method is less comprehensible because the operations are performed from inside to out.)

filter(
  summarise(
    select(
      group_by(flights, year, month, day),
      arr_delay, dep_delay
    ),
    arr = mean(arr_delay, na.rm = TRUE),
    dep = mean(dep_delay, na.rm = TRUE)
  ),
  arr > 30 | dep > 30
)

## # A tibble: 49 x 5
## # Groups:   year, month [11]
##     year month   day      arr      dep
##    <int> <int> <int>    <dbl>    <dbl>
##  1  2013     1    16 34.24736 24.61287
##  2  2013     1    31 32.60285 28.65836
##  3  2013     2    11 36.29009 39.07360
##  4  2013     2    27 31.25249 37.76327
##  5  2013     3     8 85.86216 83.53692
##  6  2013     3    18 41.29189 30.11796
##  7  2013     4    10 38.41231 33.02368
##  8  2013     4    12 36.04814 34.83843
##  9  2013     4    18 36.02848 34.91536
## 10  2013     4    19 47.91170 46.12783
## # ... with 39 more rows

flights %>%
  group_by(year, month, day) %>%
  select(arr_delay, dep_delay) %>%
  summarise(
    arr = mean(arr_delay, na.rm = TRUE),
    dep = mean(dep_delay, na.rm = TRUE)
  ) %>%
  filter(arr > 30 | dep > 30)

## # A tibble: 49 x 5
## # Groups:   year, month [11]
##     year month   day      arr      dep
##    <int> <int> <int>    <dbl>    <dbl>
##  1  2013     1    16 34.24736 24.61287
##  2  2013     1    31 32.60285 28.65836
##  3  2013     2    11 36.29009 39.07360
##  4  2013     2    27 31.25249 37.76327
##  5  2013     3     8 85.86216 83.53692
##  6  2013     3    18 41.29189 30.11796
##  7  2013     4    10 38.41231 33.02368
##  8  2013     4    12 36.04814 34.83843
##  9  2013     4    18 36.02848 34.91536
## 10  2013     4    19 47.91170 46.12783
## # ... with 39 more rows
…
